<?xml version="1.0" encoding="UTF-8" standalone="no"?>
<!DOCTYPE svg PUBLIC "-//W3C//DTD SVG 1.1//EN"
 "http://www.w3.org/Graphics/SVG/1.1/DTD/svg11.dtd">
<!-- Generated by graphviz version 2.40.1 (20161225.0304)
 -->
<!-- Title: G Pages: 1 -->
<svg width="4579pt" height="1718pt"
 viewBox="0.00 0.00 4579.08 1718.00" xmlns="http://www.w3.org/2000/svg" xmlns:xlink="http://www.w3.org/1999/xlink">
<g id="graph0" class="graph" transform="scale(1 1) rotate(0) translate(89.0835 1714)">
<title>G</title>
<polygon fill="#ffffff" stroke="transparent" points="-89.0835,4 -89.0835,-1714 4490,-1714 4490,4 -89.0835,4"/>
<!-- n1 -->
<g id="node1" class="node">
<title>n1</title>
<polygon fill="#f0f8ff" stroke="#000000" points="381.2296,-267.0853 381.2296,-487.0853 674.7345,-487.0853 674.7345,-267.0853 381.2296,-267.0853"/>
<text text-anchor="middle" x="527.982" y="-471.8853" font-family="Times,serif" font-size="14.00" fill="#000000">«JavaScript»</text>
<text text-anchor="middle" x="527.982" y="-457.8853" font-family="Times,serif" font-size="14.00" fill="#000000">actions.js</text>
<polyline fill="none" stroke="#000000" points="381.2296,-451.0853 674.7345,-451.0853 "/>
<text text-anchor="start" x="389.2296" y="-435.8853" font-family="Times,serif" font-size="14.00" fill="#000000">+widgetActionList : string = widgetActionLis</text>
<polyline fill="none" stroke="#000000" points="381.2296,-429.0853 674.7345,-429.0853 "/>
<text text-anchor="start" x="389.2296" y="-413.8853" font-family="Times,serif" font-size="14.00" fill="#000000">&#45;networkModeOffAction()</text>
<text text-anchor="start" x="389.2296" y="-399.8853" font-family="Times,serif" font-size="14.00" fill="#000000">&#45;networkModeOnAction()</text>
<text text-anchor="start" x="389.2296" y="-385.8853" font-family="Times,serif" font-size="14.00" fill="#000000">&#45;projectInitAction()</text>
<text text-anchor="start" x="389.2296" y="-371.8853" font-family="Times,serif" font-size="14.00" fill="#000000">&#45;projectThemeListInitAction()</text>
<text text-anchor="start" x="389.2296" y="-357.8853" font-family="Times,serif" font-size="14.00" fill="#000000">&#45;projectThemeSelectAction(displayName)</text>
<text text-anchor="start" x="389.2296" y="-343.8853" font-family="Times,serif" font-size="14.00" fill="#000000">&#45;widgetCoreListInitAction()</text>
<text text-anchor="start" x="389.2296" y="-329.8853" font-family="Times,serif" font-size="14.00" fill="#000000">&#45;widgetSelectAction(displayName)</text>
<text text-anchor="start" x="389.2296" y="-315.8853" font-family="Times,serif" font-size="14.00" fill="#000000">&#45;widgetThemeListInitAction()</text>
<text text-anchor="start" x="389.2296" y="-301.8853" font-family="Times,serif" font-size="14.00" fill="#000000">&#45;widgetThemeSelectAction(displayName)</text>
<text text-anchor="start" x="389.2296" y="-287.8853" font-family="Times,serif" font-size="14.00" fill="#000000">&#45;widgetViewerThemeListInitAction()</text>
<text text-anchor="start" x="389.2296" y="-273.8853" font-family="Times,serif" font-size="14.00" fill="#000000">&#45;widgetViewerThemeSelectAction(displayName)</text>
</g>
<!-- n25 -->
<g id="node14" class="node">
<title>n25</title>
<polygon fill="#f0ffff" stroke="#000000" points="147.5033,-599.5016 147.5033,-635.5016 283.6381,-635.5016 283.6381,-599.5016 147.5033,-599.5016"/>
<text text-anchor="middle" x="215.5707" y="-620.3016" font-family="Times,serif" font-size="14.00" fill="#000000">«JavaScript Require»</text>
<text text-anchor="middle" x="215.5707" y="-606.3016" font-family="Times,serif" font-size="14.00" fill="#000000">./actionTypes</text>
</g>
<!-- n1&#45;&gt;n25 -->
<g id="edge1" class="edge">
<title>n1&#45;&gt;n25</title>
<path fill="none" stroke="#ff0000" stroke-dasharray="5,2" d="M380.9666,-469C317.2523,-469 256.9533,-469 256.9533,-469 256.9533,-469 256.9533,-589.2924 256.9533,-589.2924"/>
<polygon fill="#ff0000" stroke="#ff0000" points="253.4534,-589.2924 256.9533,-599.2924 260.4534,-589.2924 253.4534,-589.2924"/>
<text text-anchor="middle" x="227.512" y="-471.8" font-family="Times,serif" font-size="14.00" fill="#ff0000">«Import *»</text>
</g>
<!-- n26 -->
<g id="node15" class="node">
<title>n26</title>
<polygon fill="#f0ffff" stroke="#000000" points="94.1338,-218.86 94.1338,-254.86 230.2686,-254.86 230.2686,-218.86 94.1338,-218.86"/>
<text text-anchor="middle" x="162.2012" y="-239.66" font-family="Times,serif" font-size="14.00" fill="#000000">«JavaScript Require»</text>
<text text-anchor="middle" x="162.2012" y="-225.66" font-family="Times,serif" font-size="14.00" fill="#000000">./defaultStates</text>
</g>
<!-- n1&#45;&gt;n26 -->
<g id="edge2" class="edge">
<title>n1&#45;&gt;n26</title>
<path fill="none" stroke="#ff0000" stroke-dasharray="5,2" d="M380.7873,-364C297.6996,-364 210.3467,-364 210.3467,-364 210.3467,-364 210.3467,-265.0761 210.3467,-265.0761"/>
<polygon fill="#ff0000" stroke="#ff0000" points="213.8468,-265.076 210.3467,-255.0761 206.8468,-265.0761 213.8468,-265.076"/>
<text text-anchor="middle" x="214.8033" y="-366.8" font-family="Times,serif" font-size="14.00" fill="#ff0000">«Import *»</text>
</g>
<!-- n27 -->
<g id="node16" class="node">
<title>n27</title>
<polygon fill="#f0ffff" stroke="#000000" points="949.3791,-454.5302 949.3791,-490.5302 1133.591,-490.5302 1133.591,-454.5302 949.3791,-454.5302"/>
<text text-anchor="middle" x="1041.4851" y="-475.3302" font-family="Times,serif" font-size="14.00" fill="#000000">«JavaScript Require»</text>
<text text-anchor="middle" x="1041.4851" y="-461.3302" font-family="Times,serif" font-size="14.00" fill="#000000">../Components/Widgets/Cores</text>
</g>
<!-- n1&#45;&gt;n27 -->
<g id="edge3" class="edge">
<title>n1&#45;&gt;n27</title>
<path fill="none" stroke="#ff0000" stroke-dasharray="5,2" d="M674.7877,-470C674.7877,-470 939.1448,-470 939.1448,-470"/>
<polygon fill="#ff0000" stroke="#ff0000" points="939.1448,-473.5001 949.1448,-470 939.1447,-466.5001 939.1448,-473.5001"/>
<text text-anchor="middle" x="775.6645" y="-472.8" font-family="Times,serif" font-size="14.00" fill="#ff0000">«Import *»</text>
</g>
<!-- n28 -->
<g id="node17" class="node">
<title>n28</title>
<polygon fill="#f0ffff" stroke="#000000" points="897.3965,-340.2791 897.3965,-376.2791 1161.9307,-376.2791 1161.9307,-340.2791 897.3965,-340.2791"/>
<text text-anchor="middle" x="1029.6636" y="-361.0791" font-family="Times,serif" font-size="14.00" fill="#000000">«JavaScript Require»</text>
<text text-anchor="middle" x="1029.6636" y="-347.0791" font-family="Times,serif" font-size="14.00" fill="#000000">../Components/Widgets/Utils/WidgetRefiner</text>
</g>
<!-- n1&#45;&gt;n28 -->
<g id="edge4" class="edge">
<title>n1&#45;&gt;n28</title>
<path fill="none" stroke="#ff0000" stroke-dasharray="5,2" d="M674.7754,-358C674.7754,-358 887.3263,-358 887.3263,-358"/>
<polygon fill="#ff0000" stroke="#ff0000" points="887.3263,-361.5001 897.3263,-358 887.3263,-354.5001 887.3263,-361.5001"/>
<text text-anchor="middle" x="749.7491" y="-360.8" font-family="Times,serif" font-size="14.00" fill="#ff0000">«Import *»</text>
</g>
<!-- n29 -->
<g id="node18" class="node">
<title>n29</title>
<polygon fill="#f0ffff" stroke="#000000" points=".2383,-414.5874 .2383,-450.5874 190.4248,-450.5874 190.4248,-414.5874 .2383,-414.5874"/>
<text text-anchor="middle" x="95.3315" y="-435.3874" font-family="Times,serif" font-size="14.00" fill="#000000">«JavaScript Require»</text>
<text text-anchor="middle" x="95.3315" y="-421.3874" font-family="Times,serif" font-size="14.00" fill="#000000">../../../userdashboard/src/Redux</text>
</g>
<!-- n1&#45;&gt;n29 -->
<g id="edge5" class="edge">
<title>n1&#45;&gt;n29</title>
<path fill="none" stroke="#ff0000" stroke-dasharray="5,2" d="M381.2045,-432C381.2045,-432 200.5635,-432 200.5635,-432"/>
<polygon fill="#ff0000" stroke="#ff0000" points="200.5635,-428.5001 190.5635,-432 200.5634,-435.5001 200.5635,-428.5001"/>
<text text-anchor="middle" x="317.0298" y="-420.8" font-family="Times,serif" font-size="14.00" fill="#ff0000">«Import [actions]»</text>
</g>
<!-- n30 -->
<g id="node19" class="node">
<title>n30</title>
<polygon fill="#f0ffff" stroke="#000000" points="34.3453,-.9737 34.3453,-36.9737 331.8219,-36.9737 331.8219,-.9737 34.3453,-.9737"/>
<text text-anchor="middle" x="183.0836" y="-21.7737" font-family="Times,serif" font-size="14.00" fill="#000000">«JavaScript Require»</text>
<text text-anchor="middle" x="183.0836" y="-7.7737" font-family="Times,serif" font-size="14.00" fill="#000000">../../../resourcecreator/src/Utils/CommonManagers</text>
</g>
<!-- n1&#45;&gt;n30 -->
<g id="edge6" class="edge">
<title>n1&#45;&gt;n30</title>
<path fill="none" stroke="#ff0000" stroke-dasharray="5,2" d="M381.0707,-315C340.669,-315 307.73,-315 307.73,-315 307.73,-315 307.73,-47.0458 307.73,-47.0458"/>
<polygon fill="#ff0000" stroke="#ff0000" points="311.2301,-47.0458 307.73,-37.0458 304.2301,-47.0459 311.2301,-47.0458"/>
<text text-anchor="middle" x="111.3232" y="-206.4933" font-family="Times,serif" font-size="14.00" fill="#ff0000">«Import [UserManagerActions, AdvencedFilterArgManagerActions]»</text>
</g>
<!-- n0 -->
<g id="node2" class="node">
<title>n0</title>
<polygon fill="#f0f8ff" stroke="#000000" points="2357.4836,-943.5853 2357.4836,-979.5853 2453.7648,-979.5853 2453.7648,-943.5853 2357.4836,-943.5853"/>
<text text-anchor="middle" x="2405.6242" y="-964.3853" font-family="Times,serif" font-size="14.00" fill="#000000">«JavaScript»</text>
<text text-anchor="middle" x="2405.6242" y="-950.3853" font-family="Times,serif" font-size="14.00" fill="#000000">actionTypes.js</text>
</g>
<!-- n2 -->
<g id="node3" class="node">
<title>n2</title>
<polygon fill="#f0f8ff" stroke="#000000" points="1371.7273,-392.1443 1371.7273,-486.1443 1594.8289,-486.1443 1594.8289,-392.1443 1371.7273,-392.1443"/>
<text text-anchor="middle" x="1483.2781" y="-470.9443" font-family="Times,serif" font-size="14.00" fill="#000000">«JavaScript»</text>
<text text-anchor="middle" x="1483.2781" y="-456.9443" font-family="Times,serif" font-size="14.00" fill="#000000">defaultStates.js</text>
<polyline fill="none" stroke="#000000" points="1371.7273,-450.1443 1594.8289,-450.1443 "/>
<text text-anchor="start" x="1379.7273" y="-434.9443" font-family="Times,serif" font-size="14.00" fill="#000000">+targetScenario : object</text>
<text text-anchor="start" x="1379.7273" y="-420.9443" font-family="Times,serif" font-size="14.00" fill="#000000">+widgetCores : string = widgetCores</text>
<polyline fill="none" stroke="#000000" points="1371.7273,-414.1443 1594.8289,-414.1443 "/>
<text text-anchor="start" x="1379.7273" y="-398.9443" font-family="Times,serif" font-size="14.00" fill="#000000">&#45;targetModel(ExperimentalScenario)</text>
</g>
<!-- n2&#45;&gt;n27 -->
<g id="edge7" class="edge">
<title>n2&#45;&gt;n27</title>
<path fill="none" stroke="#ff0000" stroke-dasharray="5,2" d="M1371.5096,-470C1371.5096,-470 1143.8049,-470 1143.8049,-470"/>
<polygon fill="#ff0000" stroke="#ff0000" points="1143.8049,-466.5001 1133.8049,-470 1143.8048,-473.5001 1143.8049,-466.5001"/>
<text text-anchor="middle" x="1226.3555" y="-472.8" font-family="Times,serif" font-size="14.00" fill="#ff0000">«Import *»</text>
</g>
<!-- n2&#45;&gt;n28 -->
<g id="edge14" class="edge">
<title>n2&#45;&gt;n28</title>
<path fill="none" stroke="#ff0000" stroke-dasharray="5,2" d="M1374.0675,-391.6621C1374.0675,-372.5758 1374.0675,-355 1374.0675,-355 1374.0675,-355 1172.3265,-355 1172.3265,-355"/>
<polygon fill="#ff0000" stroke="#ff0000" points="1172.3266,-351.5001 1162.3265,-355 1172.3265,-358.5001 1172.3266,-351.5001"/>
<text text-anchor="middle" x="1260.2263" y="-357.8" font-family="Times,serif" font-size="14.00" fill="#ff0000">«Import *»</text>
</g>
<!-- n89 -->
<g id="node20" class="node">
<title>n89</title>
<polygon fill="#f0ffff" stroke="#000000" points="1096.2288,-232.8318 1096.2288,-268.8318 1282.7581,-268.8318 1282.7581,-232.8318 1096.2288,-232.8318"/>
<text text-anchor="middle" x="1189.4934" y="-253.6318" font-family="Times,serif" font-size="14.00" fill="#000000">«JavaScript Require»</text>
<text text-anchor="middle" x="1189.4934" y="-239.6318" font-family="Times,serif" font-size="14.00" fill="#000000">../Components/WidgetThemes</text>
</g>
<!-- n2&#45;&gt;n89 -->
<g id="edge8" class="edge">
<title>n2&#45;&gt;n89</title>
<path fill="none" stroke="#ff0000" stroke-dasharray="5,2" d="M1376.4078,-391.9031C1376.4078,-335.8799 1376.4078,-250 1376.4078,-250 1376.4078,-250 1292.9506,-250 1292.9506,-250"/>
<polygon fill="#ff0000" stroke="#ff0000" points="1292.9506,-246.5001 1282.9506,-250 1292.9506,-253.5001 1292.9506,-246.5001"/>
<text text-anchor="middle" x="1345.106" y="-282.023" font-family="Times,serif" font-size="14.00" fill="#ff0000">«Import *»</text>
</g>
<!-- n90 -->
<g id="node21" class="node">
<title>n90</title>
<polygon fill="#f0ffff" stroke="#000000" points="1465.0494,-333.8678 1465.0494,-369.8678 1692.731,-369.8678 1692.731,-333.8678 1465.0494,-333.8678"/>
<text text-anchor="middle" x="1578.8902" y="-354.6678" font-family="Times,serif" font-size="14.00" fill="#000000">«JavaScript Require»</text>
<text text-anchor="middle" x="1578.8902" y="-340.6678" font-family="Times,serif" font-size="14.00" fill="#000000">../Components/WidgetViewerLayouts</text>
</g>
<!-- n2&#45;&gt;n90 -->
<g id="edge9" class="edge">
<title>n2&#45;&gt;n90</title>
<path fill="none" stroke="#ff0000" stroke-dasharray="5,2" d="M1529.9391,-391.9299C1529.9391,-391.9299 1529.9391,-380.217 1529.9391,-380.217"/>
<polygon fill="#ff0000" stroke="#ff0000" points="1533.4392,-380.217 1529.9391,-370.217 1526.4392,-380.2171 1533.4392,-380.217"/>
<text text-anchor="middle" x="1498.6374" y="-374.8735" font-family="Times,serif" font-size="14.00" fill="#ff0000">«Import *»</text>
</g>
<!-- n91 -->
<g id="node22" class="node">
<title>n91</title>
<polygon fill="#f0ffff" stroke="#000000" points="1883.5346,-700.115 1883.5346,-736.115 2019.6694,-736.115 2019.6694,-700.115 1883.5346,-700.115"/>
<text text-anchor="middle" x="1951.602" y="-720.915" font-family="Times,serif" font-size="14.00" fill="#000000">«JavaScript Require»</text>
<text text-anchor="middle" x="1951.602" y="-706.915" font-family="Times,serif" font-size="14.00" fill="#000000">lodash</text>
</g>
<!-- n2&#45;&gt;n91 -->
<g id="edge10" class="edge">
<title>n2&#45;&gt;n91</title>
<path fill="none" stroke="#ff0000" stroke-dasharray="5,2" d="M1594.8583,-439C1733.3789,-439 1951.602,-439 1951.602,-439 1951.602,-439 1951.602,-689.8015 1951.602,-689.8015"/>
<polygon fill="#ff0000" stroke="#ff0000" points="1948.1021,-689.8015 1951.602,-699.8015 1955.1021,-689.8015 1948.1021,-689.8015"/>
<text text-anchor="middle" x="1867.3292" y="-441.8" font-family="Times,serif" font-size="14.00" fill="#ff0000">«Import *»</text>
</g>
<!-- n92 -->
<g id="node23" class="node">
<title>n92</title>
<polygon fill="#f0ffff" stroke="#000000" points="1560.7011,-106.3762 1560.7011,-142.3762 1696.8359,-142.3762 1696.8359,-106.3762 1560.7011,-106.3762"/>
<text text-anchor="middle" x="1628.7685" y="-127.1762" font-family="Times,serif" font-size="14.00" fill="#000000">«JavaScript Require»</text>
<text text-anchor="middle" x="1628.7685" y="-113.1762" font-family="Times,serif" font-size="14.00" fill="#000000">./projectSampleDatas</text>
</g>
<!-- n2&#45;&gt;n92 -->
<g id="edge11" class="edge">
<title>n2&#45;&gt;n92</title>
<path fill="none" stroke="#ff0000" stroke-dasharray="5,2" d="M1440.1886,-392.1342C1440.1886,-306.5388 1440.1886,-134 1440.1886,-134 1440.1886,-134 1550.6868,-134 1550.6868,-134"/>
<polygon fill="#ff0000" stroke="#ff0000" points="1550.6869,-137.5001 1560.6868,-134 1550.6868,-130.5001 1550.6869,-137.5001"/>
<text text-anchor="middle" x="1408.8869" y="-210.618" font-family="Times,serif" font-size="14.00" fill="#ff0000">«Import *»</text>
</g>
<!-- n93 -->
<g id="node24" class="node">
<title>n93</title>
<polygon fill="#f0ffff" stroke="#000000" points="1390.4671,-70.4364 1390.4671,-106.4364 1526.6019,-106.4364 1526.6019,-70.4364 1390.4671,-70.4364"/>
<text text-anchor="middle" x="1458.5345" y="-91.2364" font-family="Times,serif" font-size="14.00" fill="#000000">«JavaScript Require»</text>
<text text-anchor="middle" x="1458.5345" y="-77.2364" font-family="Times,serif" font-size="14.00" fill="#000000">../Utils/ProjectWriter</text>
</g>
<!-- n2&#45;&gt;n93 -->
<g id="edge12" class="edge">
<title>n2&#45;&gt;n93</title>
<path fill="none" stroke="#ff0000" stroke-dasharray="5,2" d="M1415.3279,-391.8462C1415.3279,-391.8462 1415.3279,-116.6986 1415.3279,-116.6986"/>
<polygon fill="#ff0000" stroke="#ff0000" points="1418.828,-116.6986 1415.3279,-106.6986 1411.828,-116.6986 1418.828,-116.6986"/>
<text text-anchor="middle" x="1384.0261" y="-257.0724" font-family="Times,serif" font-size="14.00" fill="#ff0000">«Import *»</text>
</g>
<!-- n94 -->
<g id="node25" class="node">
<title>n94</title>
<polygon fill="#f0ffff" stroke="#000000" points="1244.9534,-127.2542 1244.9534,-163.2542 1381.0882,-163.2542 1381.0882,-127.2542 1244.9534,-127.2542"/>
<text text-anchor="middle" x="1313.0208" y="-148.0542" font-family="Times,serif" font-size="14.00" fill="#000000">«JavaScript Require»</text>
<text text-anchor="middle" x="1313.0208" y="-134.0542" font-family="Times,serif" font-size="14.00" fill="#000000">../Utils/TreeTraveser</text>
</g>
<!-- n2&#45;&gt;n94 -->
<g id="edge13" class="edge">
<title>n2&#45;&gt;n94</title>
<path fill="none" stroke="#ff0000" stroke-dasharray="5,2" d="M1378.748,-391.9257C1378.748,-391.9257 1378.748,-173.4581 1378.748,-173.4581"/>
<polygon fill="#ff0000" stroke="#ff0000" points="1382.2481,-173.458 1378.748,-163.4581 1375.2481,-173.4581 1382.2481,-173.458"/>
<text text-anchor="middle" x="1410.0497" y="-285.4919" font-family="Times,serif" font-size="14.00" fill="#ff0000">«Import *»</text>
</g>
<!-- n3 -->
<g id="node4" class="node">
<title>n3</title>
<polygon fill="#f0f8ff" stroke="#000000" points="2752.0794,-344.6409 2752.0794,-380.6409 2840.3968,-380.6409 2840.3968,-344.6409 2752.0794,-344.6409"/>
<text text-anchor="middle" x="2796.2381" y="-365.4409" font-family="Times,serif" font-size="14.00" fill="#000000">«JavaScript»</text>
<text text-anchor="middle" x="2796.2381" y="-351.4409" font-family="Times,serif" font-size="14.00" fill="#000000">index.js</text>
</g>
<!-- n4 -->
<g id="node5" class="node">
<title>n4</title>
<polygon fill="#f0f8ff" stroke="#000000" points="2236.1219,-344.6409 2236.1219,-500.6409 2462.3543,-500.6409 2462.3543,-344.6409 2236.1219,-344.6409"/>
<text text-anchor="middle" x="2349.2381" y="-485.4409" font-family="Times,serif" font-size="14.00" fill="#000000">«JavaScript»</text>
<text text-anchor="middle" x="2349.2381" y="-471.4409" font-family="Times,serif" font-size="14.00" fill="#000000">projectSampleDatas.js</text>
<polyline fill="none" stroke="#000000" points="2236.1219,-464.6409 2462.3543,-464.6409 "/>
<text text-anchor="start" x="2244.1219" y="-449.4409" font-family="Times,serif" font-size="14.00" fill="#000000">+accessPath : string = testProject</text>
<text text-anchor="start" x="2244.1219" y="-435.4409" font-family="Times,serif" font-size="14.00" fill="#000000">+children : array</text>
<text text-anchor="start" x="2244.1219" y="-421.4409" font-family="Times,serif" font-size="14.00" fill="#000000">+ci : string = iVBORw0KGgoAAAA</text>
<text text-anchor="start" x="2244.1219" y="-407.4409" font-family="Times,serif" font-size="14.00" fill="#000000">+id : string</text>
<text text-anchor="start" x="2244.1219" y="-393.4409" font-family="Times,serif" font-size="14.00" fill="#000000">+owner : string</text>
<text text-anchor="start" x="2244.1219" y="-379.4409" font-family="Times,serif" font-size="14.00" fill="#000000">+projectThemeId : string = themea</text>
<text text-anchor="start" x="2244.1219" y="-365.4409" font-family="Times,serif" font-size="14.00" fill="#000000">+siteName : string</text>
<text text-anchor="start" x="2244.1219" y="-351.4409" font-family="Times,serif" font-size="14.00" fill="#000000">+thumbnail : string = base64</text>
</g>
<!-- n5 -->
<g id="node6" class="node">
<title>n5</title>
<polygon fill="#f0f8ff" stroke="#000000" points="3483.1137,-1385.4411 3483.1137,-1443.4411 3608.8715,-1443.4411 3608.8715,-1385.4411 3483.1137,-1385.4411"/>
<text text-anchor="middle" x="3545.9926" y="-1428.2411" font-family="Times,serif" font-size="14.00" fill="#000000">«JavaScript»</text>
<text text-anchor="middle" x="3545.9926" y="-1414.2411" font-family="Times,serif" font-size="14.00" fill="#000000">store.js</text>
<polyline fill="none" stroke="#000000" points="3483.1137,-1407.4411 3608.8715,-1407.4411 "/>
<text text-anchor="start" x="3491.1137" y="-1392.2411" font-family="Times,serif" font-size="14.00" fill="#000000">+initActions : array</text>
</g>
<!-- n172 -->
<g id="node26" class="node">
<title>n172</title>
<polygon fill="#f0ffff" stroke="#000000" points="3071.1815,-1246.1614 3071.1815,-1282.1614 3207.3163,-1282.1614 3207.3163,-1246.1614 3071.1815,-1246.1614"/>
<text text-anchor="middle" x="3139.2489" y="-1266.9614" font-family="Times,serif" font-size="14.00" fill="#000000">«JavaScript Require»</text>
<text text-anchor="middle" x="3139.2489" y="-1252.9614" font-family="Times,serif" font-size="14.00" fill="#000000">redux</text>
</g>
<!-- n5&#45;&gt;n172 -->
<g id="edge15" class="edge">
<title>n5&#45;&gt;n172</title>
<path fill="none" stroke="#ff0000" stroke-dasharray="5,2" d="M3545.9926,-1385.1139C3545.9926,-1341.8537 3545.9926,-1266 3545.9926,-1266 3545.9926,-1266 3217.3286,-1266 3217.3286,-1266"/>
<polygon fill="#ff0000" stroke="#ff0000" points="3217.3287,-1262.5001 3207.3286,-1266 3217.3286,-1269.5001 3217.3287,-1262.5001"/>
<text text-anchor="middle" x="3586.4163" y="-1268.8" font-family="Times,serif" font-size="14.00" fill="#ff0000">«Import [createStore, applyMiddleware, compose]»</text>
</g>
<!-- n173 -->
<g id="node27" class="node">
<title>n173</title>
<polygon fill="#f0ffff" stroke="#000000" points="3640.5651,-1647.6986 3640.5651,-1683.6986 3784.0759,-1683.6986 3784.0759,-1647.6986 3640.5651,-1647.6986"/>
<text text-anchor="middle" x="3712.3205" y="-1668.4986" font-family="Times,serif" font-size="14.00" fill="#000000">«JavaScript Require»</text>
<text text-anchor="middle" x="3712.3205" y="-1654.4986" font-family="Times,serif" font-size="14.00" fill="#000000">remote&#45;redux&#45;devtools</text>
</g>
<!-- n5&#45;&gt;n173 -->
<g id="edge16" class="edge">
<title>n5&#45;&gt;n173</title>
<path fill="none" stroke="#ff0000" stroke-dasharray="5,2" d="M3608.9869,-1438C3640.484,-1438 3671.9811,-1438 3671.9811,-1438 3671.9811,-1438 3671.9811,-1637.4499 3671.9811,-1637.4499"/>
<polygon fill="#ff0000" stroke="#ff0000" points="3668.4812,-1637.4499 3671.9811,-1647.4499 3675.4812,-1637.45 3668.4812,-1637.4499"/>
<text text-anchor="middle" x="3640.6794" y="-1509.0278" font-family="Times,serif" font-size="14.00" fill="#ff0000">«Import *»</text>
</g>
<!-- n174 -->
<g id="node28" class="node">
<title>n174</title>
<polygon fill="#f0ffff" stroke="#000000" points="3730.6792,-1534.3391 3730.6792,-1570.3391 3866.8139,-1570.3391 3866.8139,-1534.3391 3730.6792,-1534.3391"/>
<text text-anchor="middle" x="3798.7466" y="-1555.1391" font-family="Times,serif" font-size="14.00" fill="#000000">«JavaScript Require»</text>
<text text-anchor="middle" x="3798.7466" y="-1541.1391" font-family="Times,serif" font-size="14.00" fill="#000000">redux&#45;thunk</text>
</g>
<!-- n5&#45;&gt;n174 -->
<g id="edge17" class="edge">
<title>n5&#45;&gt;n174</title>
<path fill="none" stroke="#ff0000" stroke-dasharray="5,2" d="M3608.9998,-1433C3665.1191,-1433 3738.4178,-1433 3738.4178,-1433 3738.4178,-1433 3738.4178,-1524.2141 3738.4178,-1524.2141"/>
<polygon fill="#ff0000" stroke="#ff0000" points="3734.9179,-1524.2141 3738.4178,-1534.2141 3741.9179,-1524.2141 3734.9179,-1524.2141"/>
<text text-anchor="middle" x="3688.0141" y="-1435.8" font-family="Times,serif" font-size="14.00" fill="#ff0000">«Import *»</text>
</g>
<!-- n175 -->
<g id="node29" class="node">
<title>n175</title>
<polygon fill="#f0ffff" stroke="#000000" points="3488.4431,-1673.7497 3488.4431,-1709.7497 3624.5779,-1709.7497 3624.5779,-1673.7497 3488.4431,-1673.7497"/>
<text text-anchor="middle" x="3556.5105" y="-1694.5497" font-family="Times,serif" font-size="14.00" fill="#000000">«JavaScript Require»</text>
<text text-anchor="middle" x="3556.5105" y="-1680.5497" font-family="Times,serif" font-size="14.00" fill="#000000">./reducers</text>
</g>
<!-- n5&#45;&gt;n175 -->
<g id="edge18" class="edge">
<title>n5&#45;&gt;n175</title>
<path fill="none" stroke="#ff0000" stroke-dasharray="5,2" d="M3548.6573,-1443.5939C3548.6573,-1443.5939 3548.6573,-1663.6049 3548.6573,-1663.6049"/>
<polygon fill="#ff0000" stroke="#ff0000" points="3545.1574,-1663.6049 3548.6573,-1673.6049 3552.1574,-1663.605 3545.1574,-1663.6049"/>
<text text-anchor="middle" x="3517.3556" y="-1556.3994" font-family="Times,serif" font-size="14.00" fill="#ff0000">«Import *»</text>
</g>
<!-- n176 -->
<g id="node30" class="node">
<title>n176</title>
<polygon fill="#f0ffff" stroke="#000000" points="3746.1565,-1370.476 3746.1565,-1406.476 3882.2912,-1406.476 3882.2912,-1370.476 3746.1565,-1370.476"/>
<text text-anchor="middle" x="3814.2238" y="-1391.276" font-family="Times,serif" font-size="14.00" fill="#000000">«JavaScript Require»</text>
<text text-anchor="middle" x="3814.2238" y="-1377.276" font-family="Times,serif" font-size="14.00" fill="#000000">./actions</text>
</g>
<!-- n5&#45;&gt;n176 -->
<g id="edge19" class="edge">
<title>n5&#45;&gt;n176</title>
<path fill="none" stroke="#ff0000" stroke-dasharray="5,2" d="M3608.8809,-1399C3608.8809,-1399 3736.0907,-1399 3736.0907,-1399"/>
<polygon fill="#ff0000" stroke="#ff0000" points="3736.0907,-1402.5001 3746.0907,-1399 3736.0907,-1395.5001 3736.0907,-1402.5001"/>
<text text-anchor="middle" x="3672.4858" y="-1387.8" font-family="Times,serif" font-size="14.00" fill="#ff0000">«Import [actions]»</text>
</g>
<!-- n177 -->
<g id="node31" class="node">
<title>n177</title>
<polygon fill="#f0ffff" stroke="#000000" points="3703.3972,-1212.9006 3703.3972,-1248.9006 3884.2526,-1248.9006 3884.2526,-1212.9006 3703.3972,-1212.9006"/>
<text text-anchor="middle" x="3793.8249" y="-1233.7006" font-family="Times,serif" font-size="14.00" fill="#000000">«JavaScript Require»</text>
<text text-anchor="middle" x="3793.8249" y="-1219.7006" font-family="Times,serif" font-size="14.00" fill="#000000">../Utils/EnvironmentManager</text>
</g>
<!-- n5&#45;&gt;n177 -->
<g id="edge20" class="edge">
<title>n5&#45;&gt;n177</title>
<path fill="none" stroke="#ff0000" stroke-dasharray="5,2" d="M3609.1977,-1392C3657.9222,-1392 3717.0382,-1392 3717.0382,-1392 3717.0382,-1392 3717.0382,-1259.0676 3717.0382,-1259.0676"/>
<polygon fill="#ff0000" stroke="#ff0000" points="3720.5383,-1259.0675 3717.0382,-1249.0676 3713.5383,-1259.0676 3720.5383,-1259.0675"/>
<text text-anchor="middle" x="3685.7364" y="-1368.254" font-family="Times,serif" font-size="14.00" fill="#ff0000">«Import *»</text>
</g>
<!-- n178 -->
<g id="node32" class="node">
<title>n178</title>
<polygon fill="#97ffff" stroke="#000000" points="3893.2668,-1423.1779 3893.2668,-1643.1779 4485.8576,-1643.1779 4485.8576,-1423.1779 3893.2668,-1423.1779"/>
<text text-anchor="middle" x="4189.5622" y="-1627.9779" font-family="Times,serif" font-size="14.00" fill="#000000">«JavaScript Class»</text>
<text text-anchor="middle" x="4189.5622" y="-1613.9779" font-family="Times,serif" font-size="14.00" fill="#000000">Store</text>
<polyline fill="none" stroke="#000000" points="3893.2668,-1607.1779 4485.8576,-1607.1779 "/>
<text text-anchor="start" x="3901.2668" y="-1591.9779" font-family="Times,serif" font-size="14.00" fill="#000000">+_applyMiddleware : identifier = applyMiddleware</text>
<text text-anchor="start" x="3901.2668" y="-1577.9779" font-family="Times,serif" font-size="14.00" fill="#000000">+_compose : identifier = compose</text>
<text text-anchor="start" x="3901.2668" y="-1563.9779" font-family="Times,serif" font-size="14.00" fill="#000000">+_createStore : identifier = createStore</text>
<text text-anchor="start" x="3901.2668" y="-1549.9779" font-family="Times,serif" font-size="14.00" fill="#000000">+_initActions : identifier = initActions</text>
<text text-anchor="start" x="3901.2668" y="-1535.9779" font-family="Times,serif" font-size="14.00" fill="#000000">+_reducers : identifier = reducers</text>
<text text-anchor="start" x="3901.2668" y="-1521.9779" font-family="Times,serif" font-size="14.00" fill="#000000">+_thunkMiddleWare : identifier = thunkMiddleWare</text>
<polyline fill="none" stroke="#000000" points="3893.2668,-1515.1779 4485.8576,-1515.1779 "/>
<text text-anchor="start" x="3901.2668" y="-1499.9779" font-family="Times,serif" font-size="14.00" fill="#000000">&#45;applyReduxDevTool()</text>
<text text-anchor="start" x="3901.2668" y="-1485.9779" font-family="Times,serif" font-size="14.00" fill="#000000">&#45;applyReduxRemoteDevTool()</text>
<text text-anchor="start" x="3901.2668" y="-1471.9779" font-family="Times,serif" font-size="14.00" fill="#000000">&#45;constructor(reducers_, createStore_, applyMiddleware_, compose_, thunkMiddleWare_, initActions_)</text>
<text text-anchor="start" x="3901.2668" y="-1457.9779" font-family="Times,serif" font-size="14.00" fill="#000000">&#45;createFinalStore()</text>
<text text-anchor="start" x="3901.2668" y="-1443.9779" font-family="Times,serif" font-size="14.00" fill="#000000">&#45;dispatchInitActions()</text>
<text text-anchor="start" x="3901.2668" y="-1429.9779" font-family="Times,serif" font-size="14.00" fill="#000000">&#45;init()</text>
</g>
<!-- n5&#45;&gt;n178 -->
<g id="edge21" class="edge">
<title>n5&#45;&gt;n178</title>
<path fill="none" stroke="#000000" d="M3620.8726,-1427C3620.8726,-1427 3893.0248,-1427 3893.0248,-1427"/>
<polygon fill="#000000" stroke="#000000" points="3620.8726,-1427.0001 3614.8725,-1431 3608.8726,-1427 3614.8726,-1423 3620.8726,-1427.0001"/>
</g>
<!-- n6 -->
<g id="node7" class="node">
<title>n6</title>
<polygon fill="#f0f8ff" stroke="#000000" points="2554.6175,-937.2198 2554.6175,-995.2198 2762.2835,-995.2198 2762.2835,-937.2198 2554.6175,-937.2198"/>
<text text-anchor="middle" x="2658.4505" y="-980.0198" font-family="Times,serif" font-size="14.00" fill="#000000">«JavaScript»</text>
<text text-anchor="middle" x="2658.4505" y="-966.0198" font-family="Times,serif" font-size="14.00" fill="#000000">reducers/NetworkModeReducer.js</text>
<polyline fill="none" stroke="#000000" points="2554.6175,-959.2198 2762.2835,-959.2198 "/>
<text text-anchor="start" x="2562.6175" y="-944.0198" font-family="Times,serif" font-size="14.00" fill="#000000">&#45;NetWorkModeState(, )</text>
</g>
<!-- n6&#45;&gt;n0 -->
<g id="edge22" class="edge">
<title>n6&#45;&gt;n0</title>
<path fill="none" stroke="#ff0000" stroke-dasharray="5,2" d="M2554.5219,-961C2554.5219,-961 2463.9232,-961 2463.9232,-961"/>
<polygon fill="#ff0000" stroke="#ff0000" points="2463.9232,-957.5001 2453.9232,-961 2463.9231,-964.5001 2463.9232,-957.5001"/>
<text text-anchor="middle" x="2509.2225" y="-949.8" font-family="Times,serif" font-size="14.00" fill="#ff0000">«Import *»</text>
</g>
<!-- n7 -->
<g id="node8" class="node">
<title>n7</title>
<polygon fill="#f0f8ff" stroke="#000000" points="2075.532,-999.2842 2075.532,-1057.2842 2241.2049,-1057.2842 2241.2049,-999.2842 2075.532,-999.2842"/>
<text text-anchor="middle" x="2158.3684" y="-1042.0842" font-family="Times,serif" font-size="14.00" fill="#000000">«JavaScript»</text>
<text text-anchor="middle" x="2158.3684" y="-1028.0842" font-family="Times,serif" font-size="14.00" fill="#000000">reducers/ProjectReducer.js</text>
<polyline fill="none" stroke="#000000" points="2075.532,-1021.2842 2241.2049,-1021.2842 "/>
<text text-anchor="start" x="2083.532" y="-1006.0842" font-family="Times,serif" font-size="14.00" fill="#000000">&#45;ProjectState(, )</text>
</g>
<!-- n7&#45;&gt;n0 -->
<g id="edge24" class="edge">
<title>n7&#45;&gt;n0</title>
<path fill="none" stroke="#ff0000" stroke-dasharray="5,2" d="M2241.3889,-1002C2313.2193,-1002 2405.6242,-1002 2405.6242,-1002 2405.6242,-1002 2405.6242,-989.9007 2405.6242,-989.9007"/>
<polygon fill="#ff0000" stroke="#ff0000" points="2409.1243,-989.9006 2405.6242,-979.9007 2402.1243,-989.9007 2409.1243,-989.9006"/>
<text text-anchor="middle" x="2298.2545" y="-1004.8" font-family="Times,serif" font-size="14.00" fill="#ff0000">«Import *»</text>
</g>
<!-- n7&#45;&gt;n91 -->
<g id="edge23" class="edge">
<title>n7&#45;&gt;n91</title>
<path fill="none" stroke="#ff0000" stroke-dasharray="5,2" d="M2075.423,-1018C2028.376,-1018 1978.8121,-1018 1978.8121,-1018 1978.8121,-1018 1978.8121,-746.4227 1978.8121,-746.4227"/>
<polygon fill="#ff0000" stroke="#ff0000" points="1982.3122,-746.4227 1978.8121,-736.4227 1975.3122,-746.4228 1982.3122,-746.4227"/>
<text text-anchor="middle" x="1947.5103" y="-933.3168" font-family="Times,serif" font-size="14.00" fill="#ff0000">«Import *»</text>
</g>
<!-- n224 -->
<g id="node33" class="node">
<title>n224</title>
<polygon fill="#f0ffff" stroke="#000000" points="1937.9548,-1277.9661 1937.9548,-1313.9661 2082.4841,-1313.9661 2082.4841,-1277.9661 1937.9548,-1277.9661"/>
<text text-anchor="middle" x="2010.2194" y="-1298.7661" font-family="Times,serif" font-size="14.00" fill="#000000">«JavaScript Require»</text>
<text text-anchor="middle" x="2010.2194" y="-1284.7661" font-family="Times,serif" font-size="14.00" fill="#000000">../../Utils/ProjectWriter</text>
</g>
<!-- n7&#45;&gt;n224 -->
<g id="edge25" class="edge">
<title>n7&#45;&gt;n224</title>
<path fill="none" stroke="#ff0000" stroke-dasharray="5,2" d="M2075.3424,-1038C2072.6736,-1038 2071.1349,-1038 2071.1349,-1038 2071.1349,-1038 2071.1349,-1267.8265 2071.1349,-1267.8265"/>
<polygon fill="#ff0000" stroke="#ff0000" points="2067.635,-1267.8264 2071.1349,-1277.8265 2074.635,-1267.8265 2067.635,-1267.8264"/>
<text text-anchor="middle" x="2039.8332" y="-1153.6095" font-family="Times,serif" font-size="14.00" fill="#ff0000">«Import *»</text>
</g>
<!-- n8 -->
<g id="node9" class="node">
<title>n8</title>
<polygon fill="#f0f8ff" stroke="#000000" points="2111.9112,-824.4373 2111.9112,-882.4373 2338.2325,-882.4373 2338.2325,-824.4373 2111.9112,-824.4373"/>
<text text-anchor="middle" x="2225.0719" y="-867.2373" font-family="Times,serif" font-size="14.00" fill="#000000">«JavaScript»</text>
<text text-anchor="middle" x="2225.0719" y="-853.2373" font-family="Times,serif" font-size="14.00" fill="#000000">reducers/ProjectThemeListReducer.js</text>
<polyline fill="none" stroke="#000000" points="2111.9112,-846.4373 2338.2325,-846.4373 "/>
<text text-anchor="start" x="2119.9112" y="-831.2373" font-family="Times,serif" font-size="14.00" fill="#000000">&#45;ProjectThemeListState(, )</text>
</g>
<!-- n8&#45;&gt;n0 -->
<g id="edge26" class="edge">
<title>n8&#45;&gt;n0</title>
<path fill="none" stroke="#ff0000" stroke-dasharray="5,2" d="M2323.5074,-882.4452C2323.5074,-911.204 2323.5074,-951 2323.5074,-951 2323.5074,-951 2347.3815,-951 2347.3815,-951"/>
<polygon fill="#ff0000" stroke="#ff0000" points="2347.3816,-954.5001 2357.3815,-951 2347.3815,-947.5001 2347.3816,-954.5001"/>
<text text-anchor="middle" x="2354.8091" y="-931.4597" font-family="Times,serif" font-size="14.00" fill="#ff0000">«Import *»</text>
</g>
<!-- n8&#45;&gt;n91 -->
<g id="edge27" class="edge">
<title>n8&#45;&gt;n91</title>
<path fill="none" stroke="#ff0000" stroke-dasharray="5,2" d="M2139.0676,-824.4214C2139.0676,-788.215 2139.0676,-731 2139.0676,-731 2139.0676,-731 2029.8117,-731 2029.8117,-731"/>
<polygon fill="#ff0000" stroke="#ff0000" points="2029.8117,-727.5001 2019.8117,-731 2029.8117,-734.5001 2029.8117,-727.5001"/>
<text text-anchor="middle" x="2099.8486" y="-733.8" font-family="Times,serif" font-size="14.00" fill="#ff0000">«Import *»</text>
</g>
<!-- n9 -->
<g id="node10" class="node">
<title>n9</title>
<polygon fill="#f0f8ff" stroke="#000000" points="2166.2239,-745.6883 2166.2239,-803.6883 2381.888,-803.6883 2381.888,-745.6883 2166.2239,-745.6883"/>
<text text-anchor="middle" x="2274.056" y="-788.4883" font-family="Times,serif" font-size="14.00" fill="#000000">«JavaScript»</text>
<text text-anchor="middle" x="2274.056" y="-774.4883" font-family="Times,serif" font-size="14.00" fill="#000000">reducers/WidgetCoreListReducer.js</text>
<polyline fill="none" stroke="#000000" points="2166.2239,-767.6883 2381.888,-767.6883 "/>
<text text-anchor="start" x="2174.2239" y="-752.4883" font-family="Times,serif" font-size="14.00" fill="#000000">&#45;WidgetCoreListState(, )</text>
</g>
<!-- n9&#45;&gt;n0 -->
<g id="edge28" class="edge">
<title>n9&#45;&gt;n0</title>
<path fill="none" stroke="#ff0000" stroke-dasharray="5,2" d="M2369.6858,-803.891C2369.6858,-803.891 2369.6858,-933.58 2369.6858,-933.58"/>
<polygon fill="#ff0000" stroke="#ff0000" points="2366.1859,-933.58 2369.6858,-943.58 2373.1859,-933.58 2366.1859,-933.58"/>
<text text-anchor="middle" x="2400.9875" y="-871.5355" font-family="Times,serif" font-size="14.00" fill="#ff0000">«Import *»</text>
</g>
<!-- n9&#45;&gt;n91 -->
<g id="edge29" class="edge">
<title>n9&#45;&gt;n91</title>
<path fill="none" stroke="#ff0000" stroke-dasharray="5,2" d="M2176.9179,-745.6509C2176.9179,-736.1564 2176.9179,-728 2176.9179,-728 2176.9179,-728 2029.8157,-728 2029.8157,-728"/>
<polygon fill="#ff0000" stroke="#ff0000" points="2029.8157,-724.5001 2019.8157,-728 2029.8156,-731.5001 2029.8157,-724.5001"/>
<text text-anchor="middle" x="2080.8905" y="-716.8" font-family="Times,serif" font-size="14.00" fill="#ff0000">«Import *»</text>
</g>
<!-- n10 -->
<g id="node11" class="node">
<title>n10</title>
<polygon fill="#f0f8ff" stroke="#000000" points="2066.7378,-910.2635 2066.7378,-968.2635 2294.0572,-968.2635 2294.0572,-910.2635 2066.7378,-910.2635"/>
<text text-anchor="middle" x="2180.3975" y="-953.0635" font-family="Times,serif" font-size="14.00" fill="#000000">«JavaScript»</text>
<text text-anchor="middle" x="2180.3975" y="-939.0635" font-family="Times,serif" font-size="14.00" fill="#000000">reducers/WidgetThemeListReducer.js</text>
<polyline fill="none" stroke="#000000" points="2066.7378,-932.2635 2294.0572,-932.2635 "/>
<text text-anchor="start" x="2074.7378" y="-917.0635" font-family="Times,serif" font-size="14.00" fill="#000000">&#45;WidgetThemeListState(, )</text>
</g>
<!-- n10&#45;&gt;n0 -->
<g id="edge30" class="edge">
<title>n10&#45;&gt;n0</title>
<path fill="none" stroke="#ff0000" stroke-dasharray="5,2" d="M2294.3305,-960C2294.3305,-960 2347.4197,-960 2347.4197,-960"/>
<polygon fill="#ff0000" stroke="#ff0000" points="2347.4198,-963.5001 2357.4197,-960 2347.4197,-956.5001 2347.4198,-963.5001"/>
<text text-anchor="middle" x="2320.8751" y="-948.8" font-family="Times,serif" font-size="14.00" fill="#ff0000">«Import *»</text>
</g>
<!-- n10&#45;&gt;n91 -->
<g id="edge31" class="edge">
<title>n10&#45;&gt;n91</title>
<path fill="none" stroke="#ff0000" stroke-dasharray="5,2" d="M2089.3245,-910.1484C2089.3245,-853.2918 2089.3245,-733 2089.3245,-733 2089.3245,-733 2030.0598,-733 2030.0598,-733"/>
<polygon fill="#ff0000" stroke="#ff0000" points="2030.0598,-729.5001 2020.0598,-733 2030.0597,-736.5001 2030.0598,-729.5001"/>
<text text-anchor="middle" x="2058.0228" y="-794.7418" font-family="Times,serif" font-size="14.00" fill="#ff0000">«Import *»</text>
</g>
<!-- n11 -->
<g id="node12" class="node">
<title>n11</title>
<polygon fill="#f0f8ff" stroke="#000000" points="2187.6119,-667.4439 2187.6119,-725.4439 2456.0836,-725.4439 2456.0836,-667.4439 2187.6119,-667.4439"/>
<text text-anchor="middle" x="2321.8477" y="-710.2439" font-family="Times,serif" font-size="14.00" fill="#000000">«JavaScript»</text>
<text text-anchor="middle" x="2321.8477" y="-696.2439" font-family="Times,serif" font-size="14.00" fill="#000000">reducers/WidgetViewerLayoutListReducer.js</text>
<polyline fill="none" stroke="#000000" points="2187.6119,-689.4439 2456.0836,-689.4439 "/>
<text text-anchor="start" x="2195.6119" y="-674.2439" font-family="Times,serif" font-size="14.00" fill="#000000">&#45;WidgetViewerLayoutListState(, )</text>
</g>
<!-- n11&#45;&gt;n0 -->
<g id="edge32" class="edge">
<title>n11&#45;&gt;n0</title>
<path fill="none" stroke="#ff0000" stroke-dasharray="5,2" d="M2417.8264,-725.5771C2417.8264,-725.5771 2417.8264,-933.4544 2417.8264,-933.4544"/>
<polygon fill="#ff0000" stroke="#ff0000" points="2414.3265,-933.4544 2417.8264,-943.4544 2421.3265,-933.4545 2414.3265,-933.4544"/>
<text text-anchor="middle" x="2386.5247" y="-832.3158" font-family="Times,serif" font-size="14.00" fill="#ff0000">«Import *»</text>
</g>
<!-- n11&#45;&gt;n91 -->
<g id="edge33" class="edge">
<title>n11&#45;&gt;n91</title>
<path fill="none" stroke="#ff0000" stroke-dasharray="5,2" d="M2187.3952,-712C2187.3952,-712 2029.8314,-712 2029.8314,-712"/>
<polygon fill="#ff0000" stroke="#ff0000" points="2029.8314,-708.5001 2019.8314,-712 2029.8313,-715.5001 2029.8314,-708.5001"/>
<text text-anchor="middle" x="2077.3115" y="-700.8" font-family="Times,serif" font-size="14.00" fill="#ff0000">«Import *»</text>
</g>
<!-- n12 -->
<g id="node13" class="node">
<title>n12</title>
<polygon fill="#f0f8ff" stroke="#000000" points="2468.9579,-1006.8716 2468.9579,-1078.8716 2730.9149,-1078.8716 2730.9149,-1006.8716 2468.9579,-1006.8716"/>
<text text-anchor="middle" x="2599.9364" y="-1063.6716" font-family="Times,serif" font-size="14.00" fill="#000000">«JavaScript»</text>
<text text-anchor="middle" x="2599.9364" y="-1049.6716" font-family="Times,serif" font-size="14.00" fill="#000000">reducers/index.js</text>
<polyline fill="none" stroke="#000000" points="2468.9579,-1042.8716 2730.9149,-1042.8716 "/>
<text text-anchor="start" x="2476.9579" y="-1027.6716" font-family="Times,serif" font-size="14.00" fill="#000000">+reducers : object</text>
<text text-anchor="start" x="2476.9579" y="-1013.6716" font-family="Times,serif" font-size="14.00" fill="#000000">+widgetReducers : string = widgetReducers</text>
</g>
<!-- n12&#45;&gt;n6 -->
<g id="edge40" class="edge">
<title>n12&#45;&gt;n6</title>
<path fill="none" stroke="#ff0000" stroke-dasharray="5,2" d="M2642.7662,-1006.7902C2642.7662,-1006.7902 2642.7662,-1005.6635 2642.7662,-1005.6635"/>
<polygon fill="#ff0000" stroke="#ff0000" points="2646.2663,-1005.6635 2642.7662,-995.6635 2639.2663,-1005.6635 2646.2663,-1005.6635"/>
<text text-anchor="middle" x="2611.4644" y="-995.0268" font-family="Times,serif" font-size="14.00" fill="#ff0000">«Import *»</text>
</g>
<!-- n12&#45;&gt;n7 -->
<g id="edge38" class="edge">
<title>n12&#45;&gt;n7</title>
<path fill="none" stroke="#ff0000" stroke-dasharray="5,2" d="M2468.9454,-1044C2468.9454,-1044 2251.3136,-1044 2251.3136,-1044"/>
<polygon fill="#ff0000" stroke="#ff0000" points="2251.3137,-1040.5001 2241.3136,-1044 2251.3136,-1047.5001 2251.3137,-1040.5001"/>
<text text-anchor="middle" x="2328.8278" y="-1046.8" font-family="Times,serif" font-size="14.00" fill="#ff0000">«Import *»</text>
</g>
<!-- n12&#45;&gt;n8 -->
<g id="edge39" class="edge">
<title>n12&#45;&gt;n8</title>
<path fill="none" stroke="#ff0000" stroke-dasharray="5,2" d="M2468.8388,-1019C2391.559,-1019 2308.7823,-1019 2308.7823,-1019 2308.7823,-1019 2308.7823,-892.6555 2308.7823,-892.6555"/>
<polygon fill="#ff0000" stroke="#ff0000" points="2312.2824,-892.6554 2308.7823,-882.6555 2305.2824,-892.6555 2312.2824,-892.6554"/>
<text text-anchor="middle" x="2294.3365" y="-1021.8" font-family="Times,serif" font-size="14.00" fill="#ff0000">«Import *»</text>
</g>
<!-- n12&#45;&gt;n9 -->
<g id="edge35" class="edge">
<title>n12&#45;&gt;n9</title>
<path fill="none" stroke="#ff0000" stroke-dasharray="5,2" d="M2497.5111,-1006.6412C2497.5111,-936.72 2497.5111,-790 2497.5111,-790 2497.5111,-790 2392.1835,-790 2392.1835,-790"/>
<polygon fill="#ff0000" stroke="#ff0000" points="2392.1835,-786.5001 2382.1835,-790 2392.1834,-793.5001 2392.1835,-786.5001"/>
<text text-anchor="middle" x="2466.2093" y="-848.4568" font-family="Times,serif" font-size="14.00" fill="#ff0000">«Import *»</text>
</g>
<!-- n12&#45;&gt;n10 -->
<g id="edge36" class="edge">
<title>n12&#45;&gt;n10</title>
<path fill="none" stroke="#ff0000" stroke-dasharray="5,2" d="M2468.6005,-1032C2375.7154,-1032 2267.631,-1032 2267.631,-1032 2267.631,-1032 2267.631,-978.3514 2267.631,-978.3514"/>
<polygon fill="#ff0000" stroke="#ff0000" points="2271.1311,-978.3514 2267.631,-968.3514 2264.1311,-978.3515 2271.1311,-978.3514"/>
<text text-anchor="middle" x="2372.5932" y="-1020.8" font-family="Times,serif" font-size="14.00" fill="#ff0000">«Import *»</text>
</g>
<!-- n12&#45;&gt;n11 -->
<g id="edge37" class="edge">
<title>n12&#45;&gt;n11</title>
<path fill="none" stroke="#ff0000" stroke-dasharray="5,2" d="M2526.0643,-1006.7319C2526.0643,-917.8894 2526.0643,-696 2526.0643,-696 2526.0643,-696 2466.3557,-696 2466.3557,-696"/>
<polygon fill="#ff0000" stroke="#ff0000" points="2466.3557,-692.5001 2456.3557,-696 2466.3557,-699.5001 2466.3557,-692.5001"/>
<text text-anchor="middle" x="2494.7625" y="-824.3116" font-family="Times,serif" font-size="14.00" fill="#ff0000">«Import *»</text>
</g>
<!-- n12&#45;&gt;n172 -->
<g id="edge34" class="edge">
<title>n12&#45;&gt;n172</title>
<path fill="none" stroke="#ff0000" stroke-dasharray="5,2" d="M2731.2296,-1061C2883.8164,-1061 3114.9539,-1061 3114.9539,-1061 3114.9539,-1061 3114.9539,-1236.1322 3114.9539,-1236.1322"/>
<polygon fill="#ff0000" stroke="#ff0000" points="3111.454,-1236.1322 3114.9539,-1246.1322 3118.454,-1236.1323 3111.454,-1236.1322"/>
<text text-anchor="middle" x="2928.0455" y="-1063.8" font-family="Times,serif" font-size="14.00" fill="#ff0000">«Import [combineReducers]»</text>
</g>
<!-- n279 -->
<g id="node34" class="node">
<title>n279</title>
<polygon fill="#f0ffff" stroke="#000000" points="2773.4682,-741.1291 2773.4682,-777.1291 2968.5697,-777.1291 2968.5697,-741.1291 2773.4682,-741.1291"/>
<text text-anchor="middle" x="2871.019" y="-761.9291" font-family="Times,serif" font-size="14.00" fill="#000000">«JavaScript Require»</text>
<text text-anchor="middle" x="2871.019" y="-747.9291" font-family="Times,serif" font-size="14.00" fill="#000000">../../Components/Widgets/Cores</text>
</g>
<!-- n12&#45;&gt;n279 -->
<g id="edge41" class="edge">
<title>n12&#45;&gt;n279</title>
<path fill="none" stroke="#ff0000" stroke-dasharray="5,2" d="M2730.992,-1024C2757.3107,-1024 2777.0691,-1024 2777.0691,-1024 2777.0691,-1024 2777.0691,-787.3348 2777.0691,-787.3348"/>
<polygon fill="#ff0000" stroke="#ff0000" points="2780.5692,-787.3347 2777.0691,-777.3348 2773.5692,-787.3348 2780.5692,-787.3347"/>
<text text-anchor="middle" x="2745.7673" y="-917.506" font-family="Times,serif" font-size="14.00" fill="#ff0000">«Import *»</text>
</g>
<!-- n280 -->
<g id="node35" class="node">
<title>n280</title>
<polygon fill="#f0ffff" stroke="#000000" points="2883.3024,-913.3368 2883.3024,-949.3368 3158.7263,-949.3368 3158.7263,-913.3368 2883.3024,-913.3368"/>
<text text-anchor="middle" x="3021.0144" y="-934.1368" font-family="Times,serif" font-size="14.00" fill="#000000">«JavaScript Require»</text>
<text text-anchor="middle" x="3021.0144" y="-920.1368" font-family="Times,serif" font-size="14.00" fill="#000000">../../Components/Widgets/Utils/WidgetRefiner</text>
</g>
<!-- n12&#45;&gt;n280 -->
<g id="edge42" class="edge">
<title>n12&#45;&gt;n280</title>
<path fill="none" stroke="#ff0000" stroke-dasharray="5,2" d="M2731.1052,-1042C2840.0378,-1042 2977.242,-1042 2977.242,-1042 2977.242,-1042 2977.242,-959.6105 2977.242,-959.6105"/>
<polygon fill="#ff0000" stroke="#ff0000" points="2980.7421,-959.6105 2977.242,-949.6105 2973.7421,-959.6106 2980.7421,-959.6105"/>
<text text-anchor="middle" x="2864.0666" y="-1044.8" font-family="Times,serif" font-size="14.00" fill="#ff0000">«Import *»</text>
</g>
<!-- n281 -->
<g id="node36" class="node">
<title>n281</title>
<polygon fill="#f0ffff" stroke="#000000" points="2528.2901,-1099.249 2528.2901,-1135.249 2780.67,-1135.249 2780.67,-1099.249 2528.2901,-1099.249"/>
<text text-anchor="middle" x="2654.4801" y="-1120.049" font-family="Times,serif" font-size="14.00" fill="#000000">«JavaScript Require»</text>
<text text-anchor="middle" x="2654.4801" y="-1106.049" font-family="Times,serif" font-size="14.00" fill="#000000">../../../../userdashboard/src/Redux/reducers</text>
</g>
<!-- n12&#45;&gt;n281 -->
<g id="edge43" class="edge">
<title>n12&#45;&gt;n281</title>
<path fill="none" stroke="#ff0000" stroke-dasharray="5,2" d="M2629.6025,-1079.1888C2629.6025,-1079.1888 2629.6025,-1089.1434 2629.6025,-1089.1434"/>
<polygon fill="#ff0000" stroke="#ff0000" points="2626.1026,-1089.1434 2629.6025,-1099.1434 2633.1026,-1089.1435 2626.1026,-1089.1434"/>
<text text-anchor="middle" x="2542.3247" y="-1086.9661" font-family="Times,serif" font-size="14.00" fill="#ff0000">«Import [dashboardReducers]»</text>
</g>
<!-- n282 -->
<g id="node37" class="node">
<title>n282</title>
<polygon fill="#f0ffff" stroke="#000000" points="2544.1749,-1479.8611 2544.1749,-1515.8611 2852.5411,-1515.8611 2852.5411,-1479.8611 2544.1749,-1479.8611"/>
<text text-anchor="middle" x="2698.358" y="-1500.6611" font-family="Times,serif" font-size="14.00" fill="#000000">«JavaScript Require»</text>
<text text-anchor="middle" x="2698.358" y="-1486.6611" font-family="Times,serif" font-size="14.00" fill="#000000">../../../../resourcecreator/src/Utils/CommonManagers</text>
</g>
<!-- n12&#45;&gt;n282 -->
<g id="edge44" class="edge">
<title>n12&#45;&gt;n282</title>
<path fill="none" stroke="#ff0000" stroke-dasharray="5,2" d="M2498.624,-1078.8858C2498.624,-1186.2969 2498.624,-1497 2498.624,-1497 2498.624,-1497 2533.9467,-1497 2533.9467,-1497"/>
<polygon fill="#ff0000" stroke="#ff0000" points="2533.9468,-1500.5001 2543.9467,-1497 2533.9467,-1493.5001 2533.9468,-1500.5001"/>
<text text-anchor="middle" x="2299.4043" y="-1308.4043" font-family="Times,serif" font-size="14.00" fill="#ff0000">«Import [UserManagerReducer, AdvencedFilterArgManagerReducer]»</text>
</g>
</g>
</svg>
